EESchema Schematic File Version 4
EELAYER 30 0
EELAYER END
$Descr A4 11693 8268
encoding utf-8
Sheet 1 1
Title ""
Date ""
Rev ""
Comp ""
Comment1 ""
Comment2 ""
Comment3 ""
Comment4 ""
$EndDescr
Text Label 7450 7250 0    50   ~ 0
Status_LED's
Text Label 8250 7650 0    50   ~ 0
29-05-2021
$Comp
L Device:LED D_25
U 1 1 60B48F44
P 3750 4000
F 0 "D_25" H 3743 4217 50  0000 C CNN
F 1 "LED" H 3743 4126 50  0000 C CNN
F 2 "" H 3750 4000 50  0001 C CNN
F 3 "~" H 3750 4000 50  0001 C CNN
	1    3750 4000
	1    0    0    -1  
$EndComp
$Comp
L Device:LED D_50
U 1 1 60B49BAD
P 3750 3550
F 0 "D_50" H 3743 3767 50  0000 C CNN
F 1 "LED" H 3743 3676 50  0000 C CNN
F 2 "" H 3750 3550 50  0001 C CNN
F 3 "~" H 3750 3550 50  0001 C CNN
	1    3750 3550
	1    0    0    -1  
$EndComp
$Comp
L Device:LED D_75
U 1 1 60B4A35F
P 3750 3100
F 0 "D_75" H 3743 3317 50  0000 C CNN
F 1 "LED" H 3743 3226 50  0000 C CNN
F 2 "" H 3750 3100 50  0001 C CNN
F 3 "~" H 3750 3100 50  0001 C CNN
	1    3750 3100
	1    0    0    -1  
$EndComp
$Comp
L Device:LED D_100
U 1 1 60B4AD3E
P 3750 2650
F 0 "D_100" H 3743 2867 50  0000 C CNN
F 1 "LED" H 3743 2776 50  0000 C CNN
F 2 "" H 3750 2650 50  0001 C CNN
F 3 "~" H 3750 2650 50  0001 C CNN
	1    3750 2650
	1    0    0    -1  
$EndComp
$Comp
L Device:LED D_status
U 1 1 60B4BF00
P 3750 2000
F 0 "D_status" H 3743 2217 50  0000 C CNN
F 1 "LED" H 3743 2126 50  0000 C CNN
F 2 "" H 3750 2000 50  0001 C CNN
F 3 "~" H 3750 2000 50  0001 C CNN
	1    3750 2000
	1    0    0    -1  
$EndComp
$Comp
L Device:R R_status
U 1 1 60B4D9C1
P 4700 2000
F 0 "R_status" V 4907 2000 50  0000 C CNN
F 1 "1k" V 4816 2000 50  0000 C CNN
F 2 "" V 4630 2000 50  0001 C CNN
F 3 "~" H 4700 2000 50  0001 C CNN
	1    4700 2000
	0    -1   -1   0   
$EndComp
$Comp
L Device:R R_100
U 1 1 60B4EF7C
P 4700 2650
F 0 "R_100" V 4907 2650 50  0000 C CNN
F 1 "1k" V 4816 2650 50  0000 C CNN
F 2 "" V 4630 2650 50  0001 C CNN
F 3 "~" H 4700 2650 50  0001 C CNN
	1    4700 2650
	0    -1   -1   0   
$EndComp
$Comp
L Device:R R_75
U 1 1 60B4FC31
P 4700 3100
F 0 "R_75" V 4907 3100 50  0000 C CNN
F 1 "1k" V 4816 3100 50  0000 C CNN
F 2 "" V 4630 3100 50  0001 C CNN
F 3 "~" H 4700 3100 50  0001 C CNN
	1    4700 3100
	0    -1   -1   0   
$EndComp
$Comp
L Device:R R_50
U 1 1 60B50474
P 4700 3550
F 0 "R_50" V 4907 3550 50  0000 C CNN
F 1 "1k" V 4816 3550 50  0000 C CNN
F 2 "" V 4630 3550 50  0001 C CNN
F 3 "~" H 4700 3550 50  0001 C CNN
	1    4700 3550
	0    -1   -1   0   
$EndComp
$Comp
L Device:R R_25
U 1 1 60B50E59
P 4700 4000
F 0 "R_25" V 4907 4000 50  0000 C CNN
F 1 "1k" V 4816 4000 50  0000 C CNN
F 2 "" V 4630 4000 50  0001 C CNN
F 3 "~" H 4700 4000 50  0001 C CNN
	1    4700 4000
	0    -1   -1   0   
$EndComp
Wire Wire Line
	3600 2000 3250 2000
Wire Wire Line
	3250 2000 3250 2650
Wire Wire Line
	3250 4000 3600 4000
Wire Wire Line
	3600 3550 3250 3550
Connection ~ 3250 3550
Wire Wire Line
	3250 3550 3250 4000
Wire Wire Line
	3600 3100 3250 3100
Connection ~ 3250 3100
Wire Wire Line
	3250 3100 3250 3550
Wire Wire Line
	3600 2650 3250 2650
Connection ~ 3250 2650
Wire Wire Line
	3250 2650 3250 3100
Wire Wire Line
	3900 2000 4550 2000
Wire Wire Line
	4550 2650 3900 2650
Wire Wire Line
	4550 3100 3900 3100
Wire Wire Line
	4550 3550 3900 3550
Wire Wire Line
	4550 4000 3900 4000
Wire Wire Line
	4850 2000 5450 2000
Text Label 5450 2000 0    50   ~ 0
GPIO26_PIN37
Wire Wire Line
	4850 2650 5450 2650
Wire Wire Line
	4850 3100 5450 3100
Wire Wire Line
	4850 3550 5450 3550
Wire Wire Line
	4850 4000 5450 4000
Text Label 5450 2650 0    50   ~ 0
GPIO19_PIN35
Text Label 5450 3100 0    50   ~ 0
GPIO13_PIN33
Text Label 5450 3550 0    50   ~ 0
GPIO6_PIN31
Text Label 5450 4000 0    50   ~ 0
GPIO5_PIN29
Wire Wire Line
	3250 3100 2550 3100
Wire Wire Line
	2550 3100 2550 3350
$Comp
L power:GND #PWR?
U 1 1 60B539FE
P 2550 3350
F 0 "#PWR?" H 2550 3100 50  0001 C CNN
F 1 "GND" H 2555 3177 50  0000 C CNN
F 2 "" H 2550 3350 50  0001 C CNN
F 3 "" H 2550 3350 50  0001 C CNN
	1    2550 3350
	1    0    0    -1  
$EndComp
$EndSCHEMATC
